\relax 
\@writefile{toc}{\contentsline {section}{\numberline {1}What is Node.js}{1}}
\@writefile{toc}{\contentsline {section}{\numberline {2}Terminal Commands}{1}}
\@writefile{toc}{\contentsline {section}{\numberline {3}Automation with Node}{1}}
